Lab4
…
view(report_03_11_2020)
view(report_09_13_2020)

The format of the report 6 months later contains 14 variables which the earlier one only had 8. Some of the new variables are Case-Fatality-Ratio, Incidence_Rate, Combined_Key, Active, and FIPS.

2.

new_report <- report_09_13_2020 %>% 
  group_by(Country_Region, Confirmed) 
summarise(new_report)

## # A tibble: 2,232 x 2
## # Groups:   Country_Region [188]
##    Country_Region      Confirmed
##    <chr>                   <dbl>
##  1 Afghanistan             38716
##  2 Albania                 11353
##  3 Algeria                 48254
##  4 Andorra                  1344
##  5 Angola                   3388
##  6 Antigua and Barbuda        95
##  7 Argentina              555537
##  8 Armenia                 45862
##  9 Australia                  33
## 10 Australia                 113
## #  with 2,222 more rows

3.

us_report <- report_09_13_2020 %>% 
  filter(Country_Region == 'US') %>% 
  group_by(Country_Region, Province_State, Confirmed)
summarise(us_report)

## # A tibble: 3,053 x 3
## # Groups:   Country_Region, Province_State [58]
##    Country_Region Province_State Confirmed
##    <chr>          <chr>              <dbl>
##  1 US             Alabama                0
##  2 US             Alabama              117
##  3 US             Alabama              281
##  4 US             Alabama              282
##  5 US             Alabama              292
##  6 US             Alabama              331
##  7 US             Alabama              353
##  8 US             Alabama              361
##  9 US             Alabama              405
## 10 US             Alabama              407
## #  with 3,043 more rows
…
