Lab 5
…
9.

time_series_cl <- time_series_confirmed %>% 
  pivot_longer(-c(Province_State, Country_Region, Lat, Long),
            names_to = "Date", values_to = "Confirmed")
new_cl <- time_series_cl %>%
  filter(Country_Region == "US")
head(new_cl,50)

## # A tibble: 50 x 6
##    Province_State Country_Region   Lat  Long Date    Confirmed
##    <chr>          <chr>          <dbl> <dbl> <chr>       <dbl>
##  1 <NA>           US                40  -100 1/22/20         1
##  2 <NA>           US                40  -100 1/23/20         1
##  3 <NA>           US                40  -100 1/24/20         2
##  4 <NA>           US                40  -100 1/25/20         2
##  5 <NA>           US                40  -100 1/26/20         5
##  6 <NA>           US                40  -100 1/27/20         5
##  7 <NA>           US                40  -100 1/28/20         5
##  8 <NA>           US                40  -100 1/29/20         6
##  9 <NA>           US                40  -100 1/30/20         6
## 10 <NA>           US                40  -100 1/31/20         8
## #  with 40 more rows
…
